Fixed / Term Deposit Balance Inquiry as at 20-07-2017

Ordinary Fixed Deposit
Account(s)                           Branch CodeMaturity Date             Tenure (Months)           Amount (RM)    Interest Rate    Interest on Maturity
No Record Found

No Record Found


Pledge Fixed Deposit
Account(s)                           Branch CodeMaturity Date             Tenure (Months)           Amount (RM)    Interest Rate    Interest on Maturity
No Record Found

No Record Found



