Fixed / Term Deposit Balance Inquiry as at 20-07-2017

Term Deposit
Account(s)                           Branch CodeMaturity Date             Tenure (Months)           Amount (RM)      Profit Rate           Profit Amount
No Record Found

No Record Found


Pledge Term Deposit
Account(s)                           Branch CodeMaturity Date             Tenure (Months)           Amount (RM)      Profit Rate           Profit Amount
No Record Found

No Record Found



