Balance of Account 21102500076169 / CS NTBS SDN B as at 20-07-2017

Current Account
Description,Branch Code,Debit (RM),Credit (RM),      Sender`s Name/ Beneficiary's Name, Reference 1/ Recipient`s Reference, Reference 2/ Other Payment Details,Bank Ref No.
No Record Found


