Fixed / Term Deposit Balance Inquiry as at 24-07-2017

Ordinary Fixed Deposit
Account(s),Branch Code,Maturity Date,Tenure (Months),Amount (RM),Interest Rate,Interest on Maturity,
 '31102500231924 / SHIRIN BEST B,'046,'04-07-2018,20,0000000200000.00,3.5500,0000000007100.00,
 '31102500232009 / SHIRIN BEST B,'046,'04-09-2017,10,0000000080000.00,3.3500,0000000002232.11,
 '31102500232033 / SHIRIN BEST B,'046,'04-11-2017,12,0000000200000.00,3.4500,0000000006900.00,
Your account balance (31102500232106 / SHIRIN BEST B) is not available (03)
Your account balance (31102500233153 / SHIRIN BEST B) is not available (03)
 '31102500233374 / SHIRIN BEST B,'046,'19-08-2017,1,0000000013068.53,3.1500,0000000000034.96,
Your account balance (31102500233528 / EWCS OGANEICS) is not available (03)
 '31102500233544 / EWCS OGANEICS,'046,'06-06-2018,12,0000000100000.00,3.4500,0000000003450.00,
 '31102500233560 / FITRI AWESOME,'046,'15-08-2017,1,0000000035090.62,3.1500,0000000000093.88,
 '31418300424570 / FITRI AWESOME,'098,'06-08-2017,1,0000000018046.60,3.1500,0000000000048.28,
Your account balance (31418300424589 / FITRI AWESOME) is not available (FF)
 '36102000006686 / EWCS OGANEICS,'046,'06-06-2019,24,0000000077000.00,3.5500,0000000005467.00,
 '36102000006708 / FITRI AWESOME,'046,'07-12-2017,6,0000000025000.00,3.2500,0000000000407.36,
 '36102000006716 / FITRI AWESOME,'046,'15-08-2017,2,0000000070000.00,3.1500,0000000000368.51,
 '36418810001598 / FITRI AWESOME,'098,'06-08-2017,1,0000000021054.37,3.1500,0000000000056.33,

Pledge Fixed Deposit
Account(s),Branch Code,Maturity Date,Tenure (Months),Amount (RM),Interest Rate,Interest on Maturity,
 '31102500233552 / FITRI AWESOME,'046,'07-08-2017,1,0000000040103.56,3.1500,0000000000107.29,


