Loan Inquiry as at 24-07-2017

Loan
Account(s),Branch Code,Loan Type,Loan Amount (RM),Interest Rate,Interest Amount (RM),Loan Outstanding (RM),
 '71301000047159 / AZANIRHAB NII,'019,P681,29260.8,3.6000,5363.46,198.08,
 '71418300059714 / AZIZIRAHMAN,'098,HPMA,0.0,6.0000,0.0,0.0,



