Loan Inquiry as at 24-07-2017

Loan
Account(s)                           Branch CodeLoan Type      Loan Amount (RM)    Interest Rate  Interest Amount (RM) Loan Outstanding (RM)
71301000047159 / AZANIRHAB NII       019        P681                  29,260.80           3.6000              5,363.46                198.08
71418300059714 / AZIZIRAHMAN         098        HPMA                       0.00           6.0000                  0.00                  0.00



