Cheque Number                           Status                                                      
102175                                  F: CHEQUE  NOT FOUND                                        
102176                                  F: CHEQUE  NOT FOUND                                        
102177                                  F: CHEQUE  NOT FOUND                                        
102178                                  F: CHEQUE  NOT FOUND                                        
102179                                  F: CHEQUE  NOT FOUND                                        
102180                                  F: CHEQUE  NOT FOUND                                        
102181                                  F: CHEQUE  NOT FOUND                                        
102182                                  F: CHEQUE  NOT FOUND                                        
102183                                  F: CHEQUE  NOT FOUND                                        
102184                                  F: CHEQUE  NOT FOUND                                        
102185                                  F: CHEQUE  NOT FOUND                                        
102186                                  F: CHEQUE  NOT FOUND                                        
102187                                  F: CHEQUE  NOT FOUND                                        
102188                                  F: CHEQUE  NOT FOUND                                        
102189                                  F: CHEQUE  NOT FOUND                                        
102190                                  F: CHEQUE  NOT FOUND                                        
102191                                  F: CHEQUE  NOT FOUND                                        
102192                                  F: CHEQUE  NOT FOUND                                        
102193                                  F: CHEQUE  NOT FOUND                                        
102194                                  F: CHEQUE  NOT FOUND                                        
102195                                  F: CHEQUE  NOT FOUND                                        
102196                                  F: CHEQUE  NOT FOUND                                        
102197                                  F: CHEQUE  NOT FOUND                                        
102198                                  F: CHEQUE  NOT FOUND                                        
102199                                  F: CHEQUE  NOT FOUND                                        



