Payment - Transaction Status

Batch Information
,,,,Successful Transaction,Unsuccessful Transaction,
Bank Batch Number,File Name,Transaction Date,Payment Date,Total,Total
'170707682729,'FTT_064743_20170708_222.txt,'07-07-2017 17:53:58,'08-07-2017,'3,'0,

Status:,'Processed

User Name,Role,Status,Date,
'Mira,'Data Entry,'Done,'07-07-2017 17:53:58,
'FITRI AUTHORIZER,'Authorizer, 'N/A,',
'Shirin Authorizer,'Authorizer, 'N/A,',
'mira,'Authorizer,'Done,'07-07-2017 18:13:10,


