Account Number      21102500076169
Account Short Name  CS NTBS SDN B             
From Date   01-06-2017          To Date   18-07-2017
Date      BRH  Trx. Description      Sender`s Name/Beneficiary`s Name                   Reference 1/Recipient`s Reference                  Reference 2/Other Payment Details                  Ref Num Amount (DR)   Amount (CR)       Balance   
-------------------------------------------------------------------------------------------------------------------------------------------
               OPENING BALANCE                                                                                                                                                                                                              0.00-
08-06-2017981  CHEQUE STAMP          /                                                  /                                                  /                                                  00006004          7.50          0.00          7.50-
30-06-2017046  INTEREST CHARGED      /                                                  /                                                  /                                                  00000000          5.00          0.00         12.50-
                                                                                                                                                                                                                  
End Of File                                                                                                                                                                                                       