Payment - Transaction Status

Bill Payment

Transaction Date,Transfer Type,Status,Transfer Date,From Account,Biller Nickname,Amount,Equivalent Amount (RM),
'20-07-2017 15:28:20,Recurring Payment,Pending,21-07-2017, 21102500076169 / CS NTBS SDN B,tmnet,RM 56.00,RM 56.00,
